filename	time	wct	best known	deviation
100_20_01	31.009118294	1823734	1792110	1.764623823
100_20_02	31.005244949	1842667	1810660	1.767697966
100_20_03	31.005598639	1705179	1679880	1.506000429
100_20_04	31.010052408	1983595	1943480	2.064080927
100_20_05	31.008334656	1573769	1539090	2.253214562
