filename	time	wct	best known	deviation
100_20_01	31.028359701	1826299	1792110	1.907751198
100_20_02	31.028237572	1855144	1810660	2.456783714
100_20_03	31.022659620	1710168	1679880	1.802985928
100_20_04	31.022605422	1987013	1943480	2.239951016
100_20_05	31.020868188	1565906	1539090	1.742328259
100_20_06	31.022315606	1699094	1660530	2.322391044
100_20_07	31.022172714	1809622	1783580	1.460097108
100_20_08	31.022608736	1783710	1754470	1.666600170
100_20_09	31.023682047	1879940	1852180	1.498774417
100_20_10	31.022708704	1699359	1660070	2.366707428
