filename	time	wsct
50_20_01	0.003608066	614078
50_20_02	0.014623443	638708
50_20_03	0.003749781	613234
50_20_04	0.020708055	680249
50_20_05	0.016010341	665726
50_20_06	0.021652876	660114
50_20_07	0.009199158	587808
50_20_08	0.009876607	541600
50_20_09	0.006200372	594311
50_20_10	0.011110234	613979
50_20_11	0.010906581	618171
50_20_12	0.003611062	599759
50_20_13	0.025660960	567575
50_20_14	0.015752852	587443
50_20_15	0.009620604	617444
50_20_16	0.015978054	561130
50_20_17	0.013636023	665680
50_20_18	0.011555425	643953
50_20_19	0.012861852	474591
50_20_20	0.013294089	580599
50_20_21	0.013293801	644476
50_20_22	0.014767869	663867
50_20_23	0.009867479	619559
50_20_24	0.015604310	570600
50_20_25	0.021742581	607847
50_20_26	0.011093166	609695
50_20_27	0.010689592	578075
50_20_28	0.007594439	565197
50_20_29	0.018228275	561448
50_20_30	0.022122955	522172
100_20_01	0.204112123	1845913
100_20_02	0.184783516	1860042
100_20_03	0.198503625	1721012
100_20_04	0.096928749	1998082
100_20_05	0.274708374	1598541
100_20_06	0.203953110	1709549
100_20_07	0.136125088	1841046
100_20_08	0.237489865	1801845
100_20_09	0.242499614	1911077
100_20_10	0.106656352	1723451
100_20_11	0.126603702	1896240
100_20_12	0.145830215	1757000
100_20_13	0.200865488	1767663
100_20_14	0.189864347	1768605
100_20_15	0.155271343	1503622
100_20_16	0.172955586	1914988
100_20_17	0.242730781	1813377
100_20_18	0.173684768	1896268
100_20_19	0.232065311	1746984
100_20_20	0.155386643	1853848
100_20_21	0.145853162	1787796
100_20_22	0.194596913	1807884
100_20_23	0.262764670	1841660
100_20_24	0.284825643	1742005
100_20_25	0.067690039	1783862
100_20_26	0.204354839	1632164
100_20_27	0.223194692	1922398
100_20_28	0.360785245	1792323
100_20_29	0.145656480	2077695
100_20_30	0.164893370	1832161
