filename	time	wct	best known	deviation
100_20_01	0.124638555	1832844	1792110	2.272963155
100_20_02	0.160914772	1839499	1810660	1.592734141
100_20_03	0.101663721	1722609	1679880	2.543574541
100_20_04	0.081981038	1984070	1943480	2.088521621
100_20_05	0.180796114	1559397	1539090	1.319416019
100_20_06	0.121384179	1698518	1660530	2.287703324
100_20_07	0.198269026	1798627	1783580	0.843640319
100_20_08	0.139708213	1800274	1754470	2.610702947
100_20_09	0.207962470	1879979	1852180	1.500880044
100_20_10	0.199999639	1697403	1660070	2.248881071
100_20_11	0.160448198	1874115	1816300	3.183119529
100_20_12	0.140903772	1735605	1711620	1.401304028
100_20_13	0.160354215	1767990	1712830	3.220401324
100_20_14	0.140584629	1766476	1709350	3.341972095
100_20_15	0.121046461	1492538	1449140	2.994741709
100_20_16	0.101000631	1903440	1847320	3.037914384
100_20_17	0.120574457	1816568	1777650	2.189294856
100_20_18	0.140373107	1856959	1824010	1.806404570
100_20_19	0.139229901	1721755	1675710	2.747790489
100_20_20	0.178986522	1837241	1801770	1.968675247
100_20_21	0.178929233	1745803	1709120	2.146309212
100_20_22	0.099542294	1799321	1740800	3.361730239
100_20_23	0.179213144	1822945	1776600	2.608634470
100_20_24	0.099747085	1734016	1692610	2.446281187
100_20_25	0.099650181	1769911	1713800	3.274069320
100_20_26	0.139268182	1625040	1565920	3.775416369
100_20_27	0.179757783	1891268	1862160	1.563130988
100_20_28	0.218121226	1769431	1732590	2.126354187
100_20_29	0.138961374	2052909	1992230	3.045782866
100_20_30	0.139336714	1806401	1770450	2.030613686
