filename	time	wct	best known	deviation
100_20_01	31.034347779	1842046	1792110	2.786436100
100_20_02	31.027469401	1847274	1810660	2.022135575
100_20_03	31.025130479	1736641	1679880	3.378872300
100_20_04	31.025826047	1987062	1943480	2.242472266
100_20_05	31.024950274	1586287	1539090	3.066552313
100_20_06	31.023646974	1706246	1660530	2.753096903
100_20_07	31.025775547	1837059	1783580	2.998407697
100_20_08	31.022363201	1799486	1754470	2.565789099
100_20_09	31.024412567	1902007	1852180	2.690181300
100_20_10	31.019821856	1715286	1660070	3.326124802
100_20_11	31.020443602	1883392	1816300	3.693883169
100_20_12	31.020626845	1758162	1711620	2.719178322
100_20_13	31.019809001	1776493	1712830	3.716831209
100_20_14	31.025155206	1762560	1709350	3.112879165
100_20_15	31.023719370	1500983	1449140	3.577501139
100_20_16	31.022934001	1914609	1847320	3.642519975
100_20_17	31.024466402	1824878	1777650	2.656765955
100_20_18	31.021589983	1879221	1824010	3.026902265
100_20_19	31.023026116	1740621	1675710	3.873641621
100_20_20	31.020620306	1856393	1801770	3.031630008
100_20_21	31.023959070	1785509	1709120	4.469493072
100_20_22	31.019501149	1787745	1740800	2.696748621
100_20_23	31.024795931	1848186	1776600	4.029381966
100_20_24	31.020441299	1754483	1692610	3.655478817
100_20_25	31.021722017	1777827	1713800	3.735966857
100_20_26	31.023754932	1633500	1565920	4.315673853
100_20_27	31.024001296	1909995	1862160	2.568791081
100_20_28	31.021845131	1792920	1732590	3.482070195
100_20_29	31.022691070	2054915	1992230	3.146474052
100_20_30	31.023416602	1824646	1770450	3.061142647
