filename	time	wct	best known	deviation
100_20_01	31.009415771	1832414	1792110	2.248969092
100_20_02	31.005163774	1839172	1810660	1.574674428
100_20_03	31.008720259	1715114	1679880	2.097411720
100_20_04	31.008333696	1988295	1943480	2.305915162
100_20_05	31.007145565	1577479	1539090	2.494266092
100_20_06	31.007080410	1708398	1660530	2.882694080
100_20_07	31.007608690	1803429	1783580	1.112874107
100_20_08	31.009461927	1816199	1754470	3.518384469
100_20_09	31.004905120	1878705	1852180	1.432096233
100_20_10	31.002316958	1703668	1660070	2.626274796
100_20_11	31.002886208	1858813	1816300	2.340637560
100_20_12	31.004519229	1736807	1711620	1.471529896
100_20_13	31.004429679	1748115	1712830	2.060040985
100_20_14	31.002606149	1725780	1709350	0.961184076
100_20_15	31.007615978	1476349	1449140	1.877596368
100_20_16	31.006905737	1883611	1847320	1.964521577
100_20_17	31.007230957	1808308	1777650	1.724636458
100_20_18	31.006151590	1874113	1824010	2.746859940
100_20_19	31.009217007	1701697	1675710	1.550805330
100_20_20	31.004004398	1823901	1801770	1.228292179
100_20_21	31.007525393	1755640	1709120	2.721868564
100_20_22	31.004340621	1785522	1740800	2.569048713
100_20_23	31.006021634	1834114	1776600	3.237307216
100_20_24	31.004170399	1732624	1692610	2.364041333
100_20_25	31.001042723	1755784	1713800	2.449760766
100_20_26	31.006536733	1599528	1565920	2.146214366
100_20_27	31.009097180	1898953	1862160	1.975823775
100_20_28	31.004148183	1769832	1732590	2.149498727
100_20_29	31.003310388	2046800	1992230	2.739141565
100_20_30	31.007853774	1812825	1770450	2.393459290
