filename	time	wct	best known	deviation
100_20_01	31.023113380	1836929	1792110	2.500906752
100_20_02	31.027087109	1836047	1810660	1.402085427
100_20_03	31.021291344	1708149	1679880	1.682798771
100_20_04	31.025223856	1977216	1943480	1.735855270
100_20_05	31.027620262	1565744	1539090	1.731802559
100_20_06	31.025281371	1695059	1660530	2.079396337
100_20_07	31.028647007	1807014	1783580	1.313874343
100_20_08	31.029558904	1792933	1754470	2.192285990
100_20_09	31.023594940	1866274	1852180	0.760941161
100_20_10	31.022848159	1693858	1660070	2.035335859
100_20_11	31.036575237	1842265	1816300	1.429554589
100_20_12	31.026235517	1723062	1711620	0.668489501
100_20_13	31.021492348	1751195	1712830	2.239860348
100_20_14	31.023893498	1745231	1709350	2.099101998
100_20_15	31.022737324	1479621	1449140	2.103385456
100_20_16	31.025484129	1884910	1847320	2.034839660
100_20_17	31.024706387	1813996	1777650	2.044609456
100_20_18	31.021531484	1847322	1824010	1.278063169
100_20_19	31.024730277	1717782	1675710	2.510696958
100_20_20	31.027625654	1832520	1801770	1.706655122
100_20_21	31.021308814	1760841	1709120	3.026177214
100_20_22	31.023595385	1778613	1740800	2.172162224
100_20_23	31.026516947	1814398	1776600	2.127547000
100_20_24	31.021920806	1727788	1692610	2.078328735
100_20_25	31.020350984	1756832	1713800	2.510911425
100_20_26	31.026206585	1602215	1565920	2.317806785
100_20_27	31.029145427	1903536	1862160	2.221935816
100_20_28	31.021524546	1775808	1732590	2.494415875
100_20_29	31.028861592	2038354	1992230	2.315194531
100_20_30	31.026881915	1809882	1770450	2.227230365
