filename	time	wct	best known	deviation
50_20_01	4.000749552	617769	595260	3.781372845
50_20_02	4.000387442	643893	622342	3.462886966
50_20_03	4.000747168	619136	592745	4.452336165
50_20_04	4.000405566	687129	666621	3.076410734
50_20_05	4.000646242	685052	653748	4.788389410
50_20_06	4.000437905	663006	643294	3.064228797
50_20_07	4.000581893	589539	565375	4.273977449
50_20_08	4.000502182	547569	532097	2.907740506
50_20_09	4.000480866	600113	572797	4.768879725
50_20_10	4.000289683	623430	600785	3.769235251
