filename	time	wct	best known	deviation
50_20_01	4.000470393	605521	595260	1.723784565
50_20_02	4.001207382	629083	622342	1.083166490
50_20_03	4.000589900	598504	592745	0.971581371
50_20_04	4.001261298	675930	666621	1.396445657
50_20_05	4.000406860	665162	653748	1.745932684
50_20_06	4.000511639	650966	643294	1.192611776
50_20_07	4.000373820	574436	565375	1.602653106
50_20_08	4.000581803	539638	532097	1.417222800
50_20_09	4.000889767	577625	572797	0.842881510
50_20_10	4.000276507	606513	600785	0.953419276
