filename	time	wct	best known	deviation
50_20_01	4.001149999	605449	595260	1.711689010
50_20_02	4.000706482	630323	622342	1.282413850
50_20_03	4.000985721	598396	592745	0.953361057
50_20_04	4.000643520	677247	666621	1.594009190
50_20_05	4.001329551	666113	653748	1.891401580
50_20_06	4.000764922	648252	643294	0.770720697
50_20_07	4.000944857	572964	565375	1.342294937
50_20_08	4.001187309	536908	532097	0.904158452
50_20_09	4.000964438	579329	572797	1.140369101
50_20_10	4.000942732	607221	600785	1.071265095
