filename	time	wct	best known	deviation
50_20_01	4.000361614	612890	595260	2.961731008
50_20_02	4.000748215	642400	622342	3.222986718
50_20_03	4.000586777	607475	592745	2.485048377
50_20_04	4.000970478	684982	666621	2.754338672
50_20_05	4.001023594	674024	653748	3.101500884
50_20_06	4.000528811	659125	643294	2.460927663
50_20_07	4.000394521	585939	565375	3.637231926
50_20_08	4.000520688	547700	532097	2.932360077
50_20_09	4.000349695	591952	572797	3.344116677
50_20_10	4.000434414	616169	600785	2.560649816
