filename	deviation algo 1	deviation algo 2
100_20_01	2.1562292	2.2144176
100_20_02	1.8634200	1.7731545
100_20_03	2.2377789	1.4516751
100_20_04	2.2250808	1.9461173
100_20_05	1.9585989	2.0187254
100_20_06	2.6707377	1.9103178
100_20_07	1.4457440	1.4082463
100_20_08	2.8348732	1.7489726
100_20_09	1.7803453	1.2172143
100_20_10	2.2846145	2.0646479
100_20_11	2.0679073	1.7022298
100_20_12	1.3429149	1.2711934
100_20_13	2.3790569	2.0356136
100_20_14	1.6486618	1.7475766
100_20_15	2.4479898	2.0747064
100_20_16	2.2275513	1.9917719
100_20_17	2.2042697	1.5556943
100_20_18	2.0100657	1.5889496
100_20_19	1.9994629	2.3122259
100_20_20	1.8168024	1.7967110
100_20_21	2.7939290	2.5697903
100_20_22	2.3951057	2.2127068
100_20_23	2.6545874	2.1210627
100_20_24	2.4233226	1.9040890
100_20_25	2.2179017	2.2056483
100_20_26	2.6039644	1.9892459
100_20_27	2.2949048	1.9578984
100_20_28	2.2928794	2.1060955
100_20_29	2.3126747	2.0008433
100_20_30	2.3478664	1.9983055
