filename	time	wct	deviation
100_20_01	31.0312017	1825368.0000000	1.8558013
100_20_02	31.0213379	1835192.0000000	1.3548651
100_20_03	31.0331386	1723757.0000000	2.6119128
100_20_04	31.0416878	1977544.0000000	1.7527322
100_20_05	31.0300022	1568155.0000000	1.8884536
100_20_06	31.0388328	1688392.0000000	1.6778980
100_20_07	31.0400114	1792581.0000000	0.5046592
100_20_08	31.0244156	1786500.0000000	1.8256226
100_20_09	31.0389264	1875053.0000000	1.2349232
100_20_10	31.0388755	1703879.0000000	2.6389851
100_20_11	31.0289553	1843037.0000000	1.4720586
100_20_12	31.0398068	1731277.0000000	1.1484442
100_20_13	31.0399772	1735788.0000000	1.3403549
100_20_14	31.0395493	1735402.0000000	1.5240881
100_20_15	31.0254404	1489051.0000000	2.7541162
100_20_16	31.0268781	1885937.0000000	2.0904337
100_20_17	31.0402852	1806190.0000000	1.6054904
100_20_18	31.0285757	1863316.0000000	2.1549224
100_20_19	31.0402623	1720471.0000000	2.6711663
100_20_20	31.0296065	1827450.0000000	1.4252652
100_20_21	31.0399228	1735760.0000000	1.5586969
100_20_22	31.0283924	1768935.0000000	1.6162109
100_20_23	31.0391788	1817122.0000000	2.2808736
100_20_24	31.0306020	1723276.0000000	1.8117582
100_20_25	31.0395151	1756510.0000000	2.4921228
100_20_26	31.0400776	1598175.0000000	2.0598115
100_20_27	31.0311793	1907776.0000000	2.4496284
100_20_28	31.0396890	1751637.0000000	1.0993368
100_20_29	31.0291542	2033761.0000000	2.0846489
100_20_30	31.0396372	1797314.0000000	1.5173543
