filename	time	wct	best known	deviation
100_20_01	31.026735446	1828021	1792110	2.003839050
100_20_02	31.022466285	1857900	1810660	2.608993406
100_20_03	31.024728566	1716329	1679880	2.169738315
100_20_04	31.023858084	1987864	1943480	2.283738449
100_20_05	31.029201679	1565799	1539090	1.735376099
100_20_06	31.021140884	1695269	1660530	2.092042902
100_20_07	31.022797320	1798510	1783580	0.837080479
100_20_08	31.028194082	1789708	1754470	2.008469794
100_20_09	31.028369617	1871227	1852180	1.028355775
100_20_10	31.028600500	1686685	1660070	1.603245646
