filename	time	wct	best known	deviation
100_20_01	31.025987419	1828890	1792110	2.052329377
100_20_02	31.024076015	1837808	1810660	1.499342781
100_20_03	31.022802318	1703588	1679880	1.411291283
100_20_04	31.023274481	1979062	1943480	1.830839525
100_20_05	31.020892931	1564820	1539090	1.671767083
100_20_06	31.023086347	1693736	1660530	1.999722980
100_20_07	31.023497168	1799668	1783580	0.902006078
100_20_08	31.027438375	1796511	1754470	2.396222221
100_20_09	31.020416812	1882266	1852180	1.624356164
100_20_10	31.020333218	1693707	1660070	2.026239857
