filename	time	wct	best known	deviation
100_20_01	31.029025613	1814939	1792110	1.273861538
100_20_02	31.021364233	1835043	1810660	1.346636033
100_20_03	31.028067968	1709712	1679880	1.775841132
100_20_04	31.029840480	1992664	1943480	2.530718093
100_20_05	31.023619538	1574068	1539090	2.272641626
100_20_06	31.025398372	1690957	1660530	1.832366774
100_20_07	31.025780556	1820628	1783580	2.077170634
100_20_08	31.021199991	1787208	1754470	1.865976620
100_20_09	31.029116566	1881274	1852180	1.570797655
100_20_10	31.040728668	1697601	1660070	2.260808279
