filename	time	wct	best known	deviation
100_20_01	31.020378839	1821809	1792110	1.657208542
100_20_02	31.025459772	1838795	1810660	1.553853291
100_20_03	31.021753128	1698761	1679880	1.123949330
100_20_04	31.022032635	1975798	1943480	1.662893367
100_20_05	31.024310767	1578287	1539090	2.546764647
100_20_06	31.026609964	1697890	1660530	2.249884073
100_20_07	31.022169604	1813133	1783580	1.656948385
100_20_08	31.022613130	1777652	1754470	1.321310709
100_20_09	31.022414406	1871011	1852180	1.016693842
100_20_10	31.022731663	1693045	1660070	1.986362021
