filename	time	wct	best known	deviation
100_20_01	31.024443715	1829005	1792110	2.058746394
100_20_02	31.023757968	1829688	1810660	1.050887522
100_20_03	31.024069799	1704399	1679880	1.459568541
100_20_04	31.024254523	1970605	1943480	1.395692263
100_20_05	31.026771059	1566555	1539090	1.784496033
100_20_06	31.029309586	1699066	1660530	2.320704835
100_20_07	31.029443841	1810804	1783580	1.526368315
100_20_08	31.023312008	1779834	1754470	1.445678752
100_20_09	31.021295868	1872889	1852180	1.118087875
100_20_10	31.025291892	1695709	1660070	2.146837182
