filename	time	wct	best known	deviation
100_20_01	31.030270156	1815630	1792110	1.312419439
100_20_02	31.023814643	1847113	1810660	2.013243790
100_20_03	31.020249427	1711657	1679880	1.891623211
100_20_04	31.024154590	1990782	1943480	2.433881491
100_20_05	31.023578167	1574314	1539090	2.288625097
100_20_06	31.023835083	1693643	1660530	1.994122359
100_20_07	31.025060381	1816561	1783580	1.849146099
100_20_08	31.023149741	1782899	1754470	1.620375384
100_20_09	31.024079620	1878651	1852180	1.429180749
100_20_10	31.027964362	1702402	1660070	2.550012951
