filename	time	wct	best known	deviation
100_20_01	31.036689951	1859697	1792110	3.771364481
100_20_02	31.037754384	1873118	1810660	3.449460418
100_20_03	31.019984927	1754119	1679880	4.419303760
100_20_04	31.023752836	2008897	1943480	3.365972379
100_20_05	31.025731800	1617477	1539090	5.093074479
100_20_06	31.021178810	1720133	1660530	3.589396157
100_20_07	31.024142529	1862377	1783580	4.417912289
100_20_08	31.024676981	1829772	1754470	4.292008413
100_20_09	31.023899614	1938692	1852180	4.670820331
100_20_10	31.024854365	1732712	1660070	4.375839573
