filename	time	wsct
50_20_01	0.010574420	623428
50_20_02	0.005576046	648136
50_20_03	0.007473751	603919
50_20_04	0.009853639	680066
50_20_05	0.007077144	676502
50_20_06	0.005377899	658102
50_20_07	0.005877445	594209
50_20_08	0.010406402	548023
50_20_09	0.005254101	601120
50_20_10	0.005980068	616760
50_20_11	0.007225366	632277
50_20_12	0.005485347	599154
50_20_13	0.007610720	582488
50_20_14	0.008256361	596387
50_20_15	0.006637990	617028
50_20_16	0.006918477	566635
50_20_17	0.014638177	666142
50_20_18	0.012571120	647685
50_20_19	0.009245410	480868
50_20_20	0.011600063	578589
50_20_21	0.005150595	638047
50_20_22	0.007424125	669324
50_20_23	0.010455673	622818
50_20_24	0.006812604	573243
50_20_25	0.007945033	609772
50_20_26	0.008224609	626141
50_20_27	0.008140487	579426
50_20_28	0.005759637	572906
50_20_29	0.008126234	563545
50_20_30	0.005425307	523306
100_20_01	0.064332461	1895391
100_20_02	0.054847880	1882887
100_20_03	0.073711230	1735296
100_20_04	0.063654332	2007125
100_20_05	0.074367889	1585402
100_20_06	0.063783834	1701976
100_20_07	0.075586352	1859485
100_20_08	0.064430975	1809007
100_20_09	0.053927716	1907030
100_20_10	0.063624866	1729185
100_20_11	0.073335171	1901079
100_20_12	0.066889869	1764464
100_20_13	0.063760486	1779151
100_20_14	0.074874225	1767125
100_20_15	0.073589468	1494629
100_20_16	0.103757286	1910005
100_20_17	0.094020934	1828116
100_20_18	0.064245723	1871534
100_20_19	0.063619741	1733272
100_20_20	0.074738593	1868067
100_20_21	0.064725072	1755928
100_20_22	0.064291496	1811314
100_20_23	0.063586872	1857311
100_20_24	0.064265190	1777410
100_20_25	0.053890438	1784054
100_20_26	0.052901217	1640348
100_20_27	0.064950104	1913215
100_20_28	0.063979208	1808265
100_20_29	0.065708320	2055464
100_20_30	0.072143578	1841258
