filename	time	wct	best known	deviation
50_20_01	2.524630640	604168	595260	1.496488929
50_20_02	6.111034307	631206	622342	1.424297251
50_20_03	0.877912415	601090	592745	1.407856667
50_20_04	0.754504977	676448	666621	1.474150979
50_20_05	2.896002326	663452	653748	1.484364006
