filename	time	wct	best known	deviation
50_20_01	4.133757690	603841	595260	1.441554951
50_20_02	2.760976058	630939	622342	1.381394796
50_20_03	0.440485213	601535	592745	1.482931109
50_20_04	11.353996107	676468	666621	1.477151185
50_20_05	0.080116405	662691	653748	1.367958296
