filename	time	wct	best known	deviation
50_20_01	25.341851524	601086	595260	0.978731983
50_20_02	60.002952336	628761	622342	1.031426450
50_20_03	1.821936840	598422	592745	0.957747429
50_20_04	51.609222520	673225	666621	0.990667861
50_20_05	43.951304381	660207	653748	0.987995374
