filename	time	wct	best known	deviation
50_20_01	60.003271587	601923	595260	1.119342808
50_20_02	60.003387726	629509	622342	1.151617599
50_20_03	60.003469137	594264	592745	0.256265342
50_20_04	60.003847344	669525	666621	0.435629841
50_20_05	60.003581095	659448	653748	0.871895593
