filename	time	wct	best known	deviation
50_20_01	46.698435854	601125	595260	0.985283742
50_20_02	42.617053502	628267	622342	0.952048873
50_20_03	1.234066101	598667	592745	0.999080549
50_20_04	60.003266062	673391	666621	1.015569567
50_20_05	60.003772351	660609	653748	1.049486958
