filename	time	wct	best known	deviation
50_20_01	9.253561944	604162	595260	1.495480966
50_20_02	6.567657851	631627	622342	1.491944943
50_20_03	1.202032240	601626	592745	1.498283410
50_20_04	1.274552288	676485	666621	1.479701360
50_20_05	0.163919416	663526	653748	1.495683352
