filename	time	wct	best known	deviation
50_20_01	60.003678035	599325	595260	0.682894869
50_20_02	60.003888517	628913	622342	1.055850320
50_20_03	60.003190250	595817	592745	0.518266708
50_20_04	60.003480689	671516	666621	0.734300300
50_20_05	60.003098896	660839	653748	1.084668710
