filename	time	wct	best known	deviation
50_20_01	60.002801471	600724	595260	0.917918221
50_20_02	60.003022899	629411	622342	1.135870631
50_20_03	60.003491297	596492	592745	0.632143671
50_20_04	60.003338053	673007	666621	0.957965621
50_20_05	60.002785791	658240	653748	0.687114913
