filename	time	wct	best known	deviation
50_20_01	0.648870948	607109	595260	1.990558747
50_20_02	2.883107817	633713	622342	1.827130420
50_20_03	1.070748372	604565	592745	1.994112139
50_20_04	0.848650889	679875	666621	1.988236194
50_20_05	0.007546051	666000	653748	1.874116632
