filename	time	wct	best known	deviation
50_20_01	0.901221469	604159	595260	1.494976985
50_20_02	0.133615103	631666	622342	1.498211594
50_20_03	0.720813303	601282	592745	1.440248336
50_20_04	1.564883348	676164	666621	1.431548061
50_20_05	0.852872892	663388	653748	1.474574301
