filename	time	wct	best known	deviation
50_20_01	60.003057254	601572	595260	1.060376978
50_20_02	60.003482918	627001	622342	0.748623747
50_20_03	60.003610249	597720	592745	0.839315389
50_20_04	60.003713977	672877	666621	0.938464285
50_20_05	60.003140246	658400	653748	0.711589175
