filename	time	wct	best known	deviation
50_20_01	3.230221349	604112	595260	1.487081275
50_20_02	29.478305664	631657	622342	1.496765444
50_20_03	0.499247456	600287	592745	1.272385258
50_20_04	1.283664200	675569	666621	1.342291947
50_20_05	2.952798878	661938	653748	1.252776299
