filename	time	wct	best known	deviation
50_20_01	1.876358272	607061	595260	1.982495044
50_20_02	0.652184342	634466	622342	1.948124986
50_20_03	0.095986035	604374	592745	1.961889177
50_20_04	0.093603413	676785	666621	1.524704442
50_20_05	0.007393445	666000	653748	1.874116632
