filename	time	wct	best known	deviation
50_20_01	0.347036974	604130	595260	1.490105164
50_20_02	108.982721447	631661	622342	1.497408177
50_20_03	0.106866964	601475	592745	1.472808712
50_20_04	0.046894373	676550	666621	1.489452027
50_20_05	0.072547635	662949	653748	1.407423044
50_20_06	0.153455853	652943	643294	1.499936266
50_20_07	0.155577471	573744	565375	1.480256467
50_20_08	200.005212607	540219	532097	1.526413417
50_20_09	0.152556549	581385	572797	1.499309529
50_20_10	0.141992360	609720	600785	1.487220886
50_20_11	200.007142458	615960	604272	1.934228295
50_20_12	24.262377005	592571	584199	1.433073319
50_20_13	92.485981181	560216	551945	1.498518874
50_20_14	0.092808493	580044	572954	1.237446636
50_20_15	0.082380822	604143	595368	1.473878341
50_20_16	1.422125623	558984	551243	1.404280871
50_20_17	0.084434996	656385	647036	1.444896420
50_20_18	12.707403619	638979	630186	1.395302339
50_20_19	1.166569015	472392	465508	1.478814542
50_20_20	1.544622149	573627	565240	1.483794494
50_20_21	200.004126914	628932	617905	1.784578536
50_20_22	4.027409244	652074	642666	1.463901934
50_20_23	1.709559565	611339	602536	1.460991542
50_20_24	0.199226639	560643	552363	1.499014235
50_20_25	0.815341451	596753	587942	1.498617211
50_20_26	1.577643243	609287	600296	1.497761105
50_20_27	32.991556892	571919	563816	1.437170992
50_20_28	0.127714955	557893	549809	1.470328787
50_20_29	0.230474813	551651	545184	1.186205024
50_20_30	0.112281810	516353	509210	1.402761140
