filename	time	wct	best known	deviation
50_20_01	60.002977909	598436	595260	0.533548365
50_20_02	60.003513293	629242	622342	1.108715144
50_20_03	60.003610261	596836	592745	0.690178745
50_20_04	60.003437145	674171	666621	1.132577582
50_20_05	60.002925666	660049	653748	0.963827040
