filename	time	wct	best known	deviation
50_20_01	60.002923100	598913	595260	0.613681417
50_20_02	60.003075436	629345	622342	1.125265529
50_20_03	60.003089112	597585	592745	0.816539996
50_20_04	60.003631193	673234	666621	0.992017953
50_20_05	60.003184731	659956	653748	0.949601375
