filename	time	wct	best known	deviation
50_20_01	60.003400345	600487	595260	0.878103686
50_20_02	60.003777612	629144	622342	1.092968175
50_20_03	60.003430642	597605	592745	0.819914128
50_20_04	60.003266376	671300	666621	0.701898080
50_20_05	60.003140016	660829	653748	1.083139069
