<?xml version="1.0" encoding="UTF-8" standalone="no"?>
<!DOCTYPE svg PUBLIC "-//W3C//DTD SVG 1.1//EN"
 "http://www.w3.org/Graphics/SVG/1.1/DTD/svg11.dtd">
<!-- Generated by graphviz version 2.38.0 (20140413.2041)
 -->
<!-- Title: pfsp/permutation.hpp Pages: 1 -->
<svg width="384pt" height="84pt"
 viewBox="0.00 0.00 383.50 84.00" xmlns="http://www.w3.org/2000/svg" xmlns:xlink="http://www.w3.org/1999/xlink">
<g id="graph0" class="graph" transform="scale(1 1) rotate(0) translate(4 80)">
<title>pfsp/permutation.hpp</title>
<polygon fill="white" stroke="none" points="-4,4 -4,-80 379.5,-80 379.5,4 -4,4"/>
<!-- Node1 -->
<g id="node1" class="node"><title>Node1</title>
<polygon fill="#bfbfbf" stroke="black" points="147.5,-56.5 147.5,-75.5 255.5,-75.5 255.5,-56.5 147.5,-56.5"/>
<text text-anchor="middle" x="201.5" y="-63.5" font-family="Helvetica,sans-Serif" font-size="10.00">pfsp/permutation.hpp</text>
</g>
<!-- Node2 -->
<g id="node2" class="node"><title>Node2</title>
<polygon fill="white" stroke="#bfbfbf" points="0,-0.5 0,-19.5 49,-19.5 49,-0.5 0,-0.5"/>
<text text-anchor="middle" x="24.5" y="-7.5" font-family="Helvetica,sans-Serif" font-size="10.00">cassert</text>
</g>
<!-- Node1&#45;&gt;Node2 -->
<g id="edge1" class="edge"><title>Node1&#45;&gt;Node2</title>
<path fill="none" stroke="midnightblue" d="M173.454,-56.4435C142.446,-46.9836 92.4734,-31.7377 59.069,-21.5465"/>
<polygon fill="midnightblue" stroke="midnightblue" points="59.8595,-18.1285 49.2734,-18.558 57.8168,-24.8238 59.8595,-18.1285"/>
</g>
<!-- Node3 -->
<g id="node3" class="node"><title>Node3</title>
<polygon fill="white" stroke="#bfbfbf" points="67.5,-0.5 67.5,-19.5 123.5,-19.5 123.5,-0.5 67.5,-0.5"/>
<text text-anchor="middle" x="95.5" y="-7.5" font-family="Helvetica,sans-Serif" font-size="10.00">algorithm</text>
</g>
<!-- Node1&#45;&gt;Node3 -->
<g id="edge2" class="edge"><title>Node1&#45;&gt;Node3</title>
<path fill="none" stroke="midnightblue" d="M184.469,-56.324C167.47,-47.6641 141.124,-34.2424 121.507,-24.249"/>
<polygon fill="midnightblue" stroke="midnightblue" points="122.988,-21.0752 112.488,-19.6545 119.81,-27.3125 122.988,-21.0752"/>
</g>
<!-- Node4 -->
<g id="node4" class="node"><title>Node4</title>
<polygon fill="white" stroke="#bfbfbf" points="141.5,-0.5 141.5,-19.5 195.5,-19.5 195.5,-0.5 141.5,-0.5"/>
<text text-anchor="middle" x="168.5" y="-7.5" font-family="Helvetica,sans-Serif" font-size="10.00">iostream</text>
</g>
<!-- Node1&#45;&gt;Node4 -->
<g id="edge3" class="edge"><title>Node1&#45;&gt;Node4</title>
<path fill="none" stroke="midnightblue" d="M196.051,-56.083C191.486,-48.6127 184.832,-37.7244 179.207,-28.5199"/>
<polygon fill="midnightblue" stroke="midnightblue" points="182.049,-26.4588 173.848,-19.7511 176.076,-30.109 182.049,-26.4588"/>
</g>
<!-- Node5 -->
<g id="node5" class="node"><title>Node5</title>
<polygon fill="white" stroke="#bfbfbf" points="214,-0.5 214,-19.5 255,-19.5 255,-0.5 214,-0.5"/>
<text text-anchor="middle" x="234.5" y="-7.5" font-family="Helvetica,sans-Serif" font-size="10.00">string</text>
</g>
<!-- Node1&#45;&gt;Node5 -->
<g id="edge4" class="edge"><title>Node1&#45;&gt;Node5</title>
<path fill="none" stroke="midnightblue" d="M206.949,-56.083C211.514,-48.6127 218.168,-37.7244 223.793,-28.5199"/>
<polygon fill="midnightblue" stroke="midnightblue" points="226.924,-30.109 229.152,-19.7511 220.951,-26.4588 226.924,-30.109"/>
</g>
<!-- Node6 -->
<g id="node6" class="node"><title>Node6</title>
<polygon fill="white" stroke="#bfbfbf" points="273.5,-0.5 273.5,-19.5 313.5,-19.5 313.5,-0.5 273.5,-0.5"/>
<text text-anchor="middle" x="293.5" y="-7.5" font-family="Helvetica,sans-Serif" font-size="10.00">utility</text>
</g>
<!-- Node1&#45;&gt;Node6 -->
<g id="edge5" class="edge"><title>Node1&#45;&gt;Node6</title>
<path fill="none" stroke="midnightblue" d="M216.281,-56.324C230.767,-47.8215 253.073,-34.7288 269.993,-24.7975"/>
<polygon fill="midnightblue" stroke="midnightblue" points="271.903,-27.735 278.755,-19.6545 268.359,-21.6981 271.903,-27.735"/>
</g>
<!-- Node7 -->
<g id="node7" class="node"><title>Node7</title>
<polygon fill="white" stroke="#bfbfbf" points="331.5,-0.5 331.5,-19.5 375.5,-19.5 375.5,-0.5 331.5,-0.5"/>
<text text-anchor="middle" x="353.5" y="-7.5" font-family="Helvetica,sans-Serif" font-size="10.00">vector</text>
</g>
<!-- Node1&#45;&gt;Node7 -->
<g id="edge6" class="edge"><title>Node1&#45;&gt;Node7</title>
<path fill="none" stroke="midnightblue" d="M225.585,-56.4435C251.494,-47.239 292.823,-32.5565 321.46,-22.3826"/>
<polygon fill="midnightblue" stroke="midnightblue" points="322.763,-25.6341 331.014,-18.9883 320.42,-19.038 322.763,-25.6341"/>
</g>
</g>
</svg>
