filename	time	wct	best known	deviation
50_20_01	4.003638492	604917	595260	1.622316299
50_20_02	4.003126672	631160	622342	1.416905817
50_20_03	4.003161498	597877	592745	0.865802326
50_20_04	4.003783187	677644	666621	1.653563269
50_20_05	4.003913545	660027	653748	0.960461829
50_20_06	4.003205365	651002	643294	1.198207973
50_20_07	4.003681089	576504	565375	1.968428034
50_20_08	4.003919087	538991	532097	1.295628429
50_20_09	4.003496492	579636	572797	1.193965751
50_20_10	4.003586420	608368	600785	1.262181979
50_20_11	4.003209957	612824	604272	1.415256706
50_20_12	4.003610116	590911	584199	1.148923569
50_20_13	4.003504634	561104	551945	1.659404470
50_20_14	4.003447507	583702	572954	1.875892305
50_20_15	4.003257486	600058	595368	0.787748082
50_20_16	4.002847354	558721	551243	1.356570514
50_20_17	4.002870684	652166	647036	0.792846148
50_20_18	4.003060979	636617	630186	1.020492363
50_20_19	4.003352539	473979	465508	1.819732421
50_20_20	4.003243656	570258	565240	0.887764489
50_20_21	4.003287817	629969	617905	1.952403687
50_20_22	4.003061213	649971	642666	1.136671304
50_20_23	4.003928492	612286	602536	1.618160575
50_20_24	4.003221093	558661	552363	1.140192229
50_20_25	4.003096554	601007	587942	2.222157968
50_20_26	4.003496357	607437	600296	1.189579807
50_20_27	4.003653228	572351	563816	1.513791733
50_20_28	4.002913497	557590	549809	1.415218740
50_20_29	4.003421447	556674	545184	2.107545342
50_20_30	4.003145855	517640	509210	1.655505587
