filename	time	wct	best known	deviation
50_20_01	4.003619507	606347	595260	1.862547458
50_20_02	4.003604307	631272	622342	1.434902353
50_20_03	4.003167728	601207	592745	1.427595340
50_20_04	4.003831880	676395	666621	1.466200435
50_20_05	4.003272008	665716	653748	1.830674817
50_20_06	4.003717275	653846	643294	1.640307542
50_20_07	4.003182656	571635	565375	1.107229715
50_20_08	4.003343936	539316	532097	1.356707518
50_20_09	4.003752893	580376	572797	1.323156371
50_20_10	4.003592062	605043	600785	0.708739399
50_20_11	4.003625839	612560	604272	1.371567771
50_20_12	4.003273014	590908	584199	1.148410045
50_20_13	4.003203222	556281	551945	0.785585520
50_20_14	4.003116206	582283	572954	1.628228444
50_20_15	4.003769016	603368	595368	1.343706749
50_20_16	4.002873851	559179	551243	1.439655470
50_20_17	4.003470875	653878	647036	1.057437299
50_20_18	4.003207229	638919	630186	1.385781341
50_20_19	4.003574392	472105	465508	1.417161467
50_20_20	4.003212947	572822	565240	1.341377114
50_20_21	4.003190149	628155	617905	1.658831050
50_20_22	4.003869260	650793	642666	1.264576001
50_20_23	4.003589114	613770	602536	1.864452912
50_20_24	4.003736600	560455	552363	1.464978646
50_20_25	4.003359372	596985	587942	1.538076885
50_20_26	4.003451610	608264	600296	1.327345176
50_20_27	4.003484514	572056	563816	1.461469699
50_20_28	4.002841743	556871	549809	1.284446053
50_20_29	4.003500700	549111	545184	0.720307272
50_20_30	4.002911277	516139	509210	1.360735257
