filename	time	wct	best known	deviation
50_20_01	4.003161881	606064	595260	1.815005208
50_20_02	4.003968401	633027	622342	1.716901639
50_20_03	4.003882543	595533	592745	0.470354031
50_20_04	4.003352574	674343	666621	1.158379349
50_20_05	4.003661131	661771	653748	1.227231288
50_20_06	4.003354393	651283	643294	1.241889400
50_20_07	4.003920068	575665	565375	1.820030953
50_20_08	4.003037669	539283	532097	1.350505641
50_20_09	4.003289762	585284	572797	2.180004434
50_20_10	4.003303994	607742	600785	1.157984970
50_20_11	4.003426761	613130	604272	1.465896153
50_20_12	4.003062961	588561	584199	0.746663380
50_20_13	4.003171363	558965	551945	1.271865856
50_20_14	4.003636248	579871	572954	1.207252240
50_20_15	4.003637800	602151	595368	1.139295360
50_20_16	4.003612740	555475	551243	0.767719499
50_20_17	4.003983096	653093	647036	0.936114838
50_20_18	4.004017714	639970	630186	1.552557499
50_20_19	4.003505717	472624	465508	1.528652569
50_20_20	4.004081391	572365	565240	1.260526502
50_20_21	4.003857830	632634	617905	2.383699760
50_20_22	4.003106085	652316	642666	1.501557574
50_20_23	4.004064948	611428	602536	1.475762444
50_20_24	4.003615881	561069	552363	1.576137431
50_20_25	4.003317997	598404	587942	1.779427222
50_20_26	4.004064908	608424	600296	1.353998694
50_20_27	4.003573846	573868	563816	1.782851143
50_20_28	4.003309221	557886	549809	1.469055617
50_20_29	4.003141209	557246	545184	2.212464049
50_20_30	4.004095971	515916	509210	1.316941930
