filename	time	wct	best known	deviation
50_20_01	4.003044271	603865	595260	1.445586802
50_20_02	4.003203456	633298	622342	1.760446828
50_20_03	4.003466024	597444	592745	0.792752364
50_20_04	4.003967677	675772	666621	1.372744033
50_20_05	4.003932919	664828	653748	1.694842661
50_20_06	4.003634372	650768	643294	1.161832692
50_20_07	4.003643449	576666	565375	1.997081583
50_20_08	4.003368336	537861	532097	1.083261135
50_20_09	4.003026776	579422	572797	1.156605220
50_20_10	4.003258149	606636	600785	0.973892491
50_20_11	4.003751227	611984	604272	1.276246459
50_20_12	4.003922323	589621	584199	0.928108401
50_20_13	4.003955389	558455	551945	1.179465345
50_20_14	4.003374319	579569	572954	1.154542948
50_20_15	4.003142168	603282	595368	1.329261902
50_20_16	4.003843663	556092	551243	0.879648358
50_20_17	4.003207614	652714	647036	0.877540044
50_20_18	4.003369976	639939	630186	1.547638316
50_20_19	4.003480392	473481	465508	1.712752520
50_20_20	4.003578109	569002	565240	0.665557993
50_20_21	4.003656380	628275	617905	1.678251511
50_20_22	4.003661095	651888	642666	1.434959995
50_20_23	4.003468759	613929	602536	1.890841377
50_20_24	4.003116060	557095	552363	0.856683015
50_20_25	4.003202477	595753	587942	1.328532406
50_20_26	4.002997162	609247	600296	1.491097725
50_20_27	4.003401561	572959	563816	1.621628333
50_20_28	4.003759036	557986	549809	1.487243752
50_20_29	4.003252953	554454	545184	1.700343370
50_20_30	4.003240846	513954	509210	0.931639206
