filename	time	wct	best known	deviation
50_20_01	4.003479958	607367	595260	2.033901152
50_20_02	4.003197837	634787	622342	1.999704343
50_20_03	4.003414507	602278	592745	1.608280120
50_20_04	4.003988904	676553	666621	1.489902058
50_20_05	4.003793057	664860	653748	1.699737514
50_20_06	4.003194966	653779	643294	1.629892398
50_20_07	4.003340225	572873	565375	1.326199425
50_20_08	4.003205174	537024	532097	0.925958989
50_20_09	4.003052783	586157	572797	2.332414450
50_20_10	4.003566925	608934	600785	1.356392054
50_20_11	4.003630517	611744	604272	1.236529245
50_20_12	4.003314723	588582	584199	0.750258046
50_20_13	4.003880251	557016	551945	0.918750963
50_20_14	4.003390292	582080	572954	1.592798026
50_20_15	4.003043837	602740	595368	1.238225770
50_20_16	4.003682379	557453	551243	1.126544918
50_20_17	4.003046123	650577	647036	0.547264758
50_20_18	4.003283847	633543	630186	0.532699870
50_20_19	4.003473612	470989	465508	1.177423374
50_20_20	4.003851255	573882	565240	1.528908074
50_20_21	4.003750936	627701	617905	1.585356972
50_20_22	4.003606479	651993	642666	1.451298186
50_20_23	4.003328534	613125	602536	1.757405367
50_20_24	4.003732404	562203	552363	1.781437207
50_20_25	4.003885476	593809	587942	0.997887547
50_20_26	4.003551417	606009	600296	0.951697163
50_20_27	4.003494354	568208	563816	0.778977539
50_20_28	4.003140915	560846	549809	2.007424396
50_20_29	4.003660617	551917	545184	1.234995891
50_20_30	4.003869431	512810	509210	0.706977475
