<?xml version="1.0" encoding="UTF-8" standalone="no"?>
<!DOCTYPE svg PUBLIC "-//W3C//DTD SVG 1.1//EN"
 "http://www.w3.org/Graphics/SVG/1.1/DTD/svg11.dtd">
<!-- Generated by graphviz version 2.38.0 (20140413.2041)
 -->
<!-- Title: pfsp/times.hpp Pages: 1 -->
<svg width="407pt" height="140pt"
 viewBox="0.00 0.00 407.00 140.00" xmlns="http://www.w3.org/2000/svg" xmlns:xlink="http://www.w3.org/1999/xlink">
<g id="graph0" class="graph" transform="scale(1 1) rotate(0) translate(4 136)">
<title>pfsp/times.hpp</title>
<polygon fill="white" stroke="none" points="-4,4 -4,-136 403,-136 403,4 -4,4"/>
<!-- Node1 -->
<g id="node1" class="node"><title>Node1</title>
<polygon fill="#bfbfbf" stroke="black" points="52.5,-112.5 52.5,-131.5 133.5,-131.5 133.5,-112.5 52.5,-112.5"/>
<text text-anchor="middle" x="93" y="-119.5" font-family="Helvetica,sans-Serif" font-size="10.00">pfsp/times.hpp</text>
</g>
<!-- Node2 -->
<g id="node2" class="node"><title>Node2</title>
<polygon fill="white" stroke="#bfbfbf" points="0,-56.5 0,-75.5 46,-75.5 46,-56.5 0,-56.5"/>
<text text-anchor="middle" x="23" y="-63.5" font-family="Helvetica,sans-Serif" font-size="10.00">cstdint</text>
</g>
<!-- Node1&#45;&gt;Node2 -->
<g id="edge1" class="edge"><title>Node1&#45;&gt;Node2</title>
<path fill="none" stroke="midnightblue" d="M81.7533,-112.324C71.2026,-104.185 55.1993,-91.8395 42.5578,-82.0874"/>
<polygon fill="midnightblue" stroke="midnightblue" points="44.507,-79.1707 34.4513,-75.8339 40.2314,-84.7132 44.507,-79.1707"/>
</g>
<!-- Node3 -->
<g id="node3" class="node"><title>Node3</title>
<polygon fill="white" stroke="#bfbfbf" points="23,-0.5 23,-19.5 77,-19.5 77,-0.5 23,-0.5"/>
<text text-anchor="middle" x="50" y="-7.5" font-family="Helvetica,sans-Serif" font-size="10.00">iostream</text>
</g>
<!-- Node1&#45;&gt;Node3 -->
<g id="edge2" class="edge"><title>Node1&#45;&gt;Node3</title>
<path fill="none" stroke="midnightblue" d="M89.6259,-112.368C82.6238,-94.4563 66.3882,-52.9233 57.0161,-28.9482"/>
<polygon fill="midnightblue" stroke="midnightblue" points="60.2591,-27.6308 53.3585,-19.5914 53.7395,-30.1794 60.2591,-27.6308"/>
</g>
<!-- Node4 -->
<g id="node4" class="node"><title>Node4</title>
<polygon fill="white" stroke="#bfbfbf" points="95,-0.5 95,-19.5 139,-19.5 139,-0.5 95,-0.5"/>
<text text-anchor="middle" x="117" y="-7.5" font-family="Helvetica,sans-Serif" font-size="10.00">vector</text>
</g>
<!-- Node1&#45;&gt;Node4 -->
<g id="edge3" class="edge"><title>Node1&#45;&gt;Node4</title>
<path fill="none" stroke="midnightblue" d="M94.8832,-112.368C98.7563,-94.617 107.691,-53.6664 112.942,-29.5974"/>
<polygon fill="midnightblue" stroke="midnightblue" points="116.413,-30.1077 115.126,-19.5914 109.574,-28.6155 116.413,-30.1077"/>
</g>
<!-- Node5 -->
<g id="node5" class="node"><title>Node5</title>
<g id="a_node5"><a xlink:href="permutation_8hpp.html" target="_top" xlink:title="Types and operations for permutations of . ">
<polygon fill="white" stroke="black" points="140,-56.5 140,-75.5 226,-75.5 226,-56.5 140,-56.5"/>
<text text-anchor="middle" x="183" y="-63.5" font-family="Helvetica,sans-Serif" font-size="10.00">permutation.hpp</text>
</a>
</g>
</g>
<!-- Node1&#45;&gt;Node5 -->
<g id="edge4" class="edge"><title>Node1&#45;&gt;Node5</title>
<path fill="none" stroke="midnightblue" d="M107.46,-112.324C121.5,-103.9 143.048,-90.9709 159.543,-81.0741"/>
<polygon fill="midnightblue" stroke="midnightblue" points="161.802,-83.8007 168.576,-75.6545 158.2,-77.7983 161.802,-83.8007"/>
</g>
<!-- Node5&#45;&gt;Node3 -->
<g id="edge7" class="edge"><title>Node5&#45;&gt;Node3</title>
<path fill="none" stroke="midnightblue" d="M161.926,-56.4435C139.94,-47.5171 105.266,-33.4387 80.3359,-23.3168"/>
<polygon fill="midnightblue" stroke="midnightblue" points="81.5578,-20.0355 70.9756,-19.5164 78.9244,-26.5213 81.5578,-20.0355"/>
</g>
<!-- Node5&#45;&gt;Node4 -->
<g id="edge10" class="edge"><title>Node5&#45;&gt;Node4</title>
<path fill="none" stroke="midnightblue" d="M172.396,-56.324C162.544,-48.2631 147.649,-36.0765 135.785,-26.3695"/>
<polygon fill="midnightblue" stroke="midnightblue" points="137.753,-23.4575 127.797,-19.8339 133.32,-28.8752 137.753,-23.4575"/>
</g>
<!-- Node6 -->
<g id="node6" class="node"><title>Node6</title>
<polygon fill="white" stroke="#bfbfbf" points="275.5,-0.5 275.5,-19.5 324.5,-19.5 324.5,-0.5 275.5,-0.5"/>
<text text-anchor="middle" x="300" y="-7.5" font-family="Helvetica,sans-Serif" font-size="10.00">cassert</text>
</g>
<!-- Node5&#45;&gt;Node6 -->
<g id="edge5" class="edge"><title>Node5&#45;&gt;Node6</title>
<path fill="none" stroke="midnightblue" d="M201.539,-56.4435C220.623,-47.6356 250.575,-33.8116 272.436,-23.722"/>
<polygon fill="midnightblue" stroke="midnightblue" points="273.935,-26.8849 281.548,-19.5164 271.001,-20.5292 273.935,-26.8849"/>
</g>
<!-- Node7 -->
<g id="node7" class="node"><title>Node7</title>
<polygon fill="white" stroke="#bfbfbf" points="343,-0.5 343,-19.5 399,-19.5 399,-0.5 343,-0.5"/>
<text text-anchor="middle" x="371" y="-7.5" font-family="Helvetica,sans-Serif" font-size="10.00">algorithm</text>
</g>
<!-- Node5&#45;&gt;Node7 -->
<g id="edge6" class="edge"><title>Node5&#45;&gt;Node7</title>
<path fill="none" stroke="midnightblue" d="M212.789,-56.4435C245.3,-47.1053 297.441,-32.1287 332.905,-21.9421"/>
<polygon fill="midnightblue" stroke="midnightblue" points="334.24,-25.2002 342.885,-19.0755 332.308,-18.4723 334.24,-25.2002"/>
</g>
<!-- Node8 -->
<g id="node8" class="node"><title>Node8</title>
<polygon fill="white" stroke="#bfbfbf" points="157.5,-0.5 157.5,-19.5 198.5,-19.5 198.5,-0.5 157.5,-0.5"/>
<text text-anchor="middle" x="178" y="-7.5" font-family="Helvetica,sans-Serif" font-size="10.00">string</text>
</g>
<!-- Node5&#45;&gt;Node8 -->
<g id="edge8" class="edge"><title>Node5&#45;&gt;Node8</title>
<path fill="none" stroke="midnightblue" d="M182.174,-56.083C181.519,-49.0059 180.58,-38.8611 179.758,-29.9865"/>
<polygon fill="midnightblue" stroke="midnightblue" points="183.217,-29.3858 178.81,-19.7511 176.247,-30.0312 183.217,-29.3858"/>
</g>
<!-- Node9 -->
<g id="node9" class="node"><title>Node9</title>
<polygon fill="white" stroke="#bfbfbf" points="217,-0.5 217,-19.5 257,-19.5 257,-0.5 217,-0.5"/>
<text text-anchor="middle" x="237" y="-7.5" font-family="Helvetica,sans-Serif" font-size="10.00">utility</text>
</g>
<!-- Node5&#45;&gt;Node9 -->
<g id="edge9" class="edge"><title>Node5&#45;&gt;Node9</title>
<path fill="none" stroke="midnightblue" d="M191.917,-56.083C199.78,-48.2195 211.431,-36.5688 220.919,-27.0813"/>
<polygon fill="midnightblue" stroke="midnightblue" points="223.653,-29.2971 228.249,-19.7511 218.703,-24.3473 223.653,-29.2971"/>
</g>
</g>
</svg>
